﻿[id_user:1+time:2017-10-23 20:30:11+2017-10-23 20:30:15+label:1+content:helloword]
[id_user:1+time:2017-10-23 20:30:20+2017-10-23 20:30:27+label:2+content:helloword]
[id_user:1+time:2017-10-23 20:30:30+2017-10-23 20:30:35+label:3+content:helloword]
[id_user:2+time:2017-10-23 20:30:25+2017-10-23 20:30:25+label:1+content:helloword]
[id_user:2+time:2017-10-23 20:30:18+2017-10-23 20:30:40+label:2+content:helloword]
[id_user:2+time:2017-10-23 20:30:30+2017-10-23 20:30:44+label:3+content:helloword]
[id_user:3+time:2017-10-23 20:30:30+2017-10-23 20:30:40+label:1+content:helloword]
[id_user:3+time:2017-10-23 20:30:39+2017-10-23 20:30:47+label:2+content:helloword]
[id_user:3+time:2017-10-23 20:30:52+2017-10-23 20:30:59+label:3+content:helloword]