﻿{"id_user":12,"time":"2017-10-23 20:30:00","content":"tôi đến từ thanh hóa"}
{"id_user":12,"time":"2017-10-23 20:30:00","content":"tôi đến từ thanh hóa"}
{"id_user":12,"time":"2017-10-23 20:30:00","content":"tôi đến từ thanh hóa"}
{"id_user":12,"time":"2017-10-23 20:30:00","content":"tôi đến từ thanh hóa"}
{"id_user":12,"time":"2017-10-23 20:30:00","content":"tôi đến từ thanh hóa"}
{"id_user":12,"time":"2017-10-23 20:30:00","content":"tôi đến từ thanh hóa"}