﻿[id_user:1+time:2017-10-23 20:30:00+content:xin chào]
[id_user:2+time:2017-10-23 20:30:00+content:xin chào]
[id_user:3+time:2017-10-23 20:30:00+content:xin chào]
[id_user:4+time:2017-10-23 20:30:00+content:xin chào]
[id_user:1+time:2017-10-23 20:30:00+content:xin chào]
[id_user:2+time:2017-10-23 20:30:00+content:xin chào]
[id_user:3+time:2017-10-23 20:30:00+content:xin chào]
[id_user:4+time:2017-10-23 20:30:00+content:xin chào]



